project1/proj1/test.vcd
$date
	Sun Dec 10 13:10:15 2017
$end
$version
	Icarus Verilog
$end
$timescale
	1s
$end
$scope module TestBench $end
$var reg 1 ! Clk $end
$var reg 1 " Reset $end
$var reg 1 # Start $end
$var integer 32 $ counter [31:0] $end
$var integer 32 % flush [31:0] $end
$var integer 32 & i [31:0] $end
$var integer 32 ' outfile [31:0] $end
$var integer 32 ( stall [31:0] $end
$scope module CPU $end
$var wire 1 ) Branch_o $end
$var wire 1 * EM_RegWrite_o $end
$var wire 5 + EM_RegistersRD_o [4:0] $end
$var wire 1 , IF_Flush $end
$var wire 1 - Jump $end
$var wire 32 . MUX1_o [31:0] $end
$var wire 32 / MUX5_o [31:0] $end
$var wire 32 0 MUX7_o [31:0] $end
$var wire 1 1 MW_RegWrite_o $end
$var wire 5 2 MW_RegistersRD_o [4:0] $end
$var wire 1 3 MemRead_o $end
$var wire 32 4 RS_data [31:0] $end
$var wire 32 5 RT_data [31:0] $end
$var wire 5 6 RegistersRT_o [4:0] $end
$var wire 32 7 addr_i [31:0] $end
$var wire 1 8 branch $end
$var wire 1 9 clk_i $end
$var wire 1 : eq $end
$var wire 32 ; immidiate_o [31:0] $end
$var wire 32 < inst [31:0] $end
$var wire 32 = inst_addr [31:0] $end
$var wire 32 > instruction_extended [31:0] $end
$var wire 32 ? pc_ID [31:0] $end
$var wire 32 @ pc_add [31:0] $end
$var wire 1 A rst_i $end
$var wire 1 B start_i $end
$scope module Control $end
$var wire 1 C Hazard_i $end
$var wire 6 D Op_i [5:0] $end
$var reg 2 E ALUOp_o [1:0] $end
$var reg 1 F ALUSrc_o $end
$var reg 1 G Branch_o $end
$var reg 1 H Jump_o $end
$var reg 1 I MemRead_o $end
$var reg 1 J MemWrite_o $end
$var reg 1 K MemtoReg_o $end
$var reg 1 L RegDst_o $end
$var reg 1 M RegWrite_o $end
$upscope $end
$scope module Add_PC $end
$var wire 32 N data1_i [31:0] $end
$var wire 32 O data2_i [31:0] $end
$var wire 32 P data_o [31:0] $end
$upscope $end
$scope module Add_ID $end
$var wire 32 Q data1_i [31:0] $end
$var wire 32 R data2_i [31:0] $end
$var wire 32 S data_o [31:0] $end
$upscope $end
$scope module Equal $end
$var wire 32 T data1_i [31:0] $end
$var wire 32 U data2_i [31:0] $end
$var wire 1 : data_o $end
$upscope $end
$scope module PC $end
$var wire 1 9 clk_i $end
$var wire 32 V pc_i [31:0] $end
$var wire 1 A rst_i $end
$var wire 1 B start_i $end
$var wire 1 W write_i $end
$var reg 32 X pc_o [31:0] $end
$upscope $end
$scope module Data_Memory $end
$var wire 1 Y MemWrite_i $end
$var wire 32 Z addr_i [31:0] $end
$var wire 1 9 clk_i $end
$var wire 32 [ data_i [31:0] $end
$var wire 32 \ data_o [31:0] $end
$upscope $end
$scope module Instruction_Memory $end
$var wire 32 ] addr_i [31:0] $end
$var wire 32 ^ instr_o [31:0] $end
$upscope $end
$scope module Registers $end
$var wire 5 _ RDaddr_i [4:0] $end
$var wire 32 ` RDdata_i [31:0] $end
$var wire 5 a RSaddr_i [4:0] $end
$var wire 32 b RSdata_o [31:0] $end
$var wire 5 c RTaddr_i [4:0] $end
$var wire 32 d RTdata_o [31:0] $end
$var wire 1 1 RegWrite_i $end
$var wire 1 9 clk_i $end
$upscope $end
$scope module MUX1 $end
$var wire 32 e data1_i [31:0] $end
$var wire 32 f data2_i [31:0] $end
$var wire 1 8 select_i $end
$var reg 32 g data_o [31:0] $end
$upscope $end
$scope module MUX2 $end
$var wire 32 h data1_i [31:0] $end
$var wire 32 i data2_i [31:0] $end
$var wire 1 - select_i $end
$var reg 32 j data_o [31:0] $end
$upscope $end
$scope module MUX3 $end
$var wire 5 k data1_i [4:0] $end
$var wire 5 l data2_i [4:0] $end
$var wire 1 m select_i $end
$var reg 5 n data_o [4:0] $end
$upscope $end
$scope module MUX4 $end
$var wire 32 o data1_i [31:0] $end
$var wire 32 p data2_i [31:0] $end
$var wire 1 q select_i $end
$var reg 32 r data_o [31:0] $end
$upscope $end
$scope module MUX5 $end
$var wire 32 s data1_i [31:0] $end
$var wire 32 t data2_i [31:0] $end
$var wire 1 u select_i $end
$var reg 32 v data_o [31:0] $end
$upscope $end
$scope module MUX6 $end
$var wire 32 w data1_i [31:0] $end
$var wire 32 x data2_i [31:0] $end
$var wire 32 y data3_i [31:0] $end
$var wire 2 z select_i [1:0] $end
$var reg 32 { data_o [31:0] $end
$upscope $end
$scope module MUX7 $end
$var wire 32 | data1_i [31:0] $end
$var wire 32 } data2_i [31:0] $end
$var wire 32 ~ data3_i [31:0] $end
$var wire 2 !" select_i [1:0] $end
$var reg 32 "" data_o [31:0] $end
$upscope $end
$scope module Shift32 $end
$var wire 32 #" data_i [31:0] $end
$var wire 32 $" data_o [31:0] $end
$upscope $end
$scope module Shift26 $end
$var wire 26 %" data_i [25:0] $end
$var wire 28 &" data_o [27:0] $end
$upscope $end
$scope module jump $end
$var wire 28 '" data1_i [27:0] $end
$var wire 32 (" data2_i [31:0] $end
$var wire 32 )" data_o [31:0] $end
$upscope $end
$scope module Sign_Extend $end
$var wire 16 *" data_i [15:0] $end
$var wire 32 +" data_o [31:0] $end
$upscope $end
$scope module ALU $end
$var wire 3 ," ALUCtrl_i [2:0] $end
$var wire 32 -" data1_i [31:0] $end
$var wire 32 ." data2_i [31:0] $end
$var reg 1 /" Zero_o $end
$var reg 32 0" data_o [31:0] $end
$upscope $end
$scope module ALU_Control $end
$var wire 2 1" ALUOp_i [1:0] $end
$var wire 6 2" funct_i [5:0] $end
$var reg 3 3" ALUCtrl_o [2:0] $end
$upscope $end
$scope module IF_ID $end
$var wire 1 9 clk_i $end
$var wire 1 , flush_i $end
$var wire 32 4" inst_i [31:0] $end
$var wire 32 5" pc_i [31:0] $end
$var wire 1 6" write_i $end
$var reg 32 7" inst_o [31:0] $end
$var reg 32 8" pc_o [31:0] $end
$upscope $end
$scope module ID_EX $end
$var wire 2 9" ALUOp_i [1:0] $end
$var wire 1 :" ALUSrc_i $end
$var wire 1 ;" MemRead_i $end
$var wire 1 <" MemWrite_i $end
$var wire 1 =" MemtoReg_i $end
$var wire 32 >" PC_i [31:0] $end
$var wire 1 ?" RegDst_i $end
$var wire 1 @" RegWrite_i $end
$var wire 5 A" RegistersRD_i [4:0] $end
$var wire 5 B" RegistersRS_i [4:0] $end
$var wire 5 C" RegistersRT_i [4:0] $end
$var wire 1 9 clk_i $end
$var wire 32 D" immidiate_i [31:0] $end
$var wire 32 E" regA_i [31:0] $end
$var wire 32 F" regB_i [31:0] $end
$var reg 2 G" ALUOp_o [1:0] $end
$var reg 1 H" ALUSrc_o $end
$var reg 1 I" MemRead_o $end
$var reg 1 J" MemWrite_o $end
$var reg 1 K" MemtoReg_o $end
$var reg 32 L" PC_o [31:0] $end
$var reg 1 M" RegDst_o $end
$var reg 1 N" RegWrite_o $end
$var reg 5 O" RegistersRD_o [4:0] $end
$var reg 5 P" RegistersRS_o [4:0] $end
$var reg 5 Q" RegistersRT_o [4:0] $end
$var reg 32 R" immidiate_o [31:0] $end
$var reg 32 S" regA_o [31:0] $end
$var reg 32 T" regB_o [31:0] $end
$upscope $end
$scope module EX_MEM $end
$var wire 32 U" ALUout_i [31:0] $end
$var wire 32 V" JumpAddr_i [31:0] $end
$var wire 1 3 MemRead_i $end
$var wire 1 W" MemWrite_i $end
$var wire 1 X" MemtoReg_i $end
$var wire 32 Y" PC_i [31:0] $end
$var wire 1 Z" RegRead_i $end
$var wire 1 [" RegWrite_i $end
$var wire 5 \" RegistersRD_i [4:0] $end
$var wire 1 ]" Zero_i $end
$var wire 1 9 clk_i $end
$var wire 32 ^" regB_i [31:0] $end
$var reg 32 _" ALUout_o [31:0] $end
$var reg 32 `" JumpAddr_o [31:0] $end
$var reg 1 a" MemRead_o $end
$var reg 1 b" MemWrite_o $end
$var reg 1 c" MemtoReg_o $end
$var reg 32 d" PC_o [31:0] $end
$var reg 1 e" RegRead_o $end
$var reg 1 f" RegWrite_o $end
$var reg 5 g" RegistersRD_o [4:0] $end
$var reg 1 h" Zero_o $end
$var reg 32 i" regB_o [31:0] $end
$upscope $end
$scope module MEM_WB $end
$var wire 32 j" ALUout_i [31:0] $end
$var wire 32 k" MemoryDataRead_i [31:0] $end
$var wire 1 l" MemtoReg_i $end
$var wire 32 m" PC_i [31:0] $end
$var wire 32 n" PC_o [31:0] $end
$var wire 1 * RegWrite_i $end
$var wire 5 o" RegistersRD_i [4:0] $end
$var wire 1 9 clk_i $end
$var reg 32 p" ALUout_o [31:0] $end
$var reg 32 q" MemoryDataRead_o [31:0] $end
$var reg 1 r" MemtoReg_o $end
$var reg 1 s" RegWrite_o $end
$var reg 5 t" RegistersRD_o [4:0] $end
$upscope $end
$scope module Forward $end
$var wire 1 u" EXMEMMemtoReg_i $end
$var wire 5 v" EXMEMRegRD_i [4:0] $end
$var wire 1 * EXMEMRegWrite_i $end
$var wire 5 w" IDEXRegRS_i [4:0] $end
$var wire 5 x" IDEXRegRT_i [4:0] $end
$var wire 5 y" MEMWBRegRD_i [4:0] $end
$var wire 1 1 MEMWBRegWrite_i $end
$var reg 2 z" ForwardA_o [1:0] $end
$var reg 2 {" ForwardB_o [1:0] $end
$upscope $end
$scope module Hazard_Detection $end
$var wire 1 3 IDEXMemRead_i $end
$var wire 5 |" IDEXRegRT_i [4:0] $end
$var wire 5 }" IFIDRegRS_i [4:0] $end
$var wire 5 ~" IFIDRegRT_i [4:0] $end
$var reg 1 !# Hazard_o $end
$var reg 1 "# IFID_o $end
$var reg 1 ## PCWrite_o $end
$upscope $end
$upscope $end
$upscope $end
$enddefinitions $end
#12
$dumpvars
1##
0"#
0!#
bx ~"
bx }"
bx |"
b0 {"
b0 z"
bx y"
bx x"
bx w"
bx v"
zu"
bx t"
xs"
xr"
b0xxxxxxxx q"
bx p"
bx o"
bz n"
bz m"
xl"
b0xxxxxxxx k"
bx j"
bx i"
zh"
bx g"
xf"
ze"
bz d"
xc"
xb"
xa"
bz `"
bx _"
bx ^"
z]"
bx \"
x["
zZ"
bz Y"
xX"
xW"
bz V"
bx U"
bx T"
bx S"
bzxxxxxxxxxxxxxxxx R"
bx Q"
bx P"
bx O"
xN"
xM"
bx L"
xK"
xJ"
xI"
xH"
bx G"
bx F"
bx E"
bx D"
bx C"
bx B"
bx A"
x@"
x?"
bx >"
x="
x<"
x;"
x:"
bx 9"
bx 8"
bx 7"
06"
b100 5"
b100000000100000 4"
bx 3"
bx 2"
bx 1"
bx 0"
x/"
bx ."
bx -"
bx ,"
bx +"
bx *"
b0xxxxxxxxxxxxxxxxxxxxxxxxxx00 )"
b100 ("
bx00 '"
bx00 &"
bx %"
bx00 $"
bx #"
bx ""
b0 !"
bx ~
bx }
bx |
bx {
b0 z
bx y
bx x
bx w
bx v
xu
b0xxxxxxxx t
bx s
bx r
xq
bzxxxxxxxxxxxxxxxx p
bx o
bx n
xm
bx l
bx k
b100 j
b0xxxxxxxxxxxxxxxxxxxxxxxxxx00 i
b100 h
b100 g
bx f
b100 e
bx d
bx c
bx b
bx a
bx `
bx _
b100000000100000 ^
b0 ]
b0xxxxxxxx \
bx [
bx Z
xY
b0 X
1W
b100 V
bx U
bx T
bx S
bx R
bx00 Q
b100 P
b100 O
b0 N
xM
xL
xK
xJ
xI
xH
xG
xF
bx E
bx D
0C
1B
1A
b100 @
bx ?
bx >
b0 =
bx <
bzxxxxxxxxxxxxxxxx ;
x:
19
x8
bx 7
bx 6
bx 5
bx 4
x3
bx 2
x1
bx 0
bx /
b100 .
x-
x,
bx +
x*
x)
b0 (
b11 '
b100000 &
b0 %
b0 $
1#
1"
1!
$end
#25
0!
09
#50
b1000 j
b1000 V
0,
08
b11 E
b11 9"
0H
0-
0G
0)
0I
0;"
0J
0<"
1M
1@"
0K
0="
0F
0:"
1L
1?"
b1000 g
b1000 .
b1000 h
b1000 ("
b10000000010000100 S
b10000000010000100 f
b10000000010000000 Q
b10000000010000000 $"
b10000000010000000 i
b10000000010000000 )"
b10000000010000000 &"
b10000000010000000 '"
1:
b0 }"
b0 ~"
b1000 A"
b0 C"
b0 B"
b100000000100000 >
b100000000100000 #"
b100000000100000 +"
b100000000100000 D"
b100000000100000 *"
b100000000100000 %"
b0 c
b0 5
b0 U
b0 d
b0 F"
b0 a
b0 4
b0 T
b0 b
b0 E"
b0 D
b100000000010010000000000001010 ^
b100000000010010000000000001010 4"
bx R"
bx ;
bx p
b100000000100000 7"
b100000000100000 <
b100 8"
b100 ?
b100 R
b100 >"
b100 X
b1000 @
b1000 P
b1000 e
b1000 5"
b100 =
b100 N
b100 ]
b1 $
1!
19
#75
0!
09
#100
b0 0"
b0 U"
b0 r
b0 ."
0/"
b1100 j
b1100 V
b0 E
b0 9"
1F
1:"
0L
0?"
b10 3"
b10 ,"
b1000 n
b1000 \"
b0 ""
b0 0
b0 o
b0 ^"
b0 {
b0 -"
b1100 g
b1100 .
b1100 h
b1100 ("
b101000 Q
b101000 $"
b1001000000000000101000 i
b1001000000000000101000 )"
b1001000000000000101000 &"
b1001000000000000101000 '"
b1001 ~"
b0 A"
b1001 C"
b1010 >
b1010 #"
b1010 +"
b1010 D"
b1010 *"
b10010000000000001010 %"
b1001 c
b1000 D
b100000 2"
b10101101000000000000000000000000 ^
b10101101000000000000000000000000 4"
b100000000010010000000000001010 7"
b100000000010010000000000001010 <
b1000 8"
b110000 S
b110000 f
b1000 ?
b1000 R
b1000 >"
b100000000100000 R"
b100000000100000 ;
b100000000100000 p
b0 Q"
b0 6
b0 k
b0 x"
b0 |"
b0 P"
b0 w"
b1000 O"
b1000 l
0I"
03
0J"
0W"
0K"
0X"
1N"
1["
0H"
0q
b11 G"
b11 1"
1M"
1m
b100 L"
b0 T"
b0 |
b0 S"
b0 w
b1000 X
b1100 @
b1100 P
b1100 e
b1100 5"
b1000 =
b1000 N
b1000 ]
b10 $
1!
19
#125
0!
09
#150
1/"
b1010 0"
b1010 U"
b10000 j
b10000 V
1J
1<"
0M
0@"
b1010 r
b1010 ."
b1001 n
b1001 \"
b10000 g
b10000 .
b10000 h
b10000 ("
b0 Q
b0 $"
b100000000000000000000000000 i
b100000000000000000000000000 )"
b100000000000000000000000000 &"
b100000000000000000000000000 '"
b1010 2"
b1000 }"
b0 ~"
b0 C"
b1000 B"
b0 >
b0 #"
b0 +"
b0 D"
b0 *"
b1000000000000000000000000 %"
b0 c
b1000 a
b101011 D
b10101101000010010000000000000100 ^
b10101101000010010000000000000100 4"
0a"
0b"
0Y
0c"
0l"
1f"
1*
b1000 g"
b1000 +
b1000 o"
b1000 v"
b0 i"
b0 [
b0 _"
b101 \
b101 k"
b0 7
b0 Z
b0 y
b0 ~
b0 j"
b1010 R"
b1010 ;
b1010 p
b1001 Q"
b1001 6
b1001 k
b1001 x"
b1001 |"
b0 O"
b0 l
1H"
1q
b0 G"
b0 1"
0M"
0m
b1000 L"
b10101101000000000000000000000000 7"
b10101101000000000000000000000000 <
b1100 8"
b1100 S
b1100 f
b1100 ?
b1100 R
b1100 >"
b1100 X
b10000 @
b10000 P
b10000 e
b10000 5"
b1100 =
b1100 N
b1100 ]
b11 $
1!
19
#175
0!
09
#200
0/"
b0 0"
b0 U"
b10100 j
b10100 V
b0 r
b0 ."
b0 n
b0 \"
b1 z"
b1 z
b0 v
b0 /
b0 `
b0 x
b0 }
b10100 g
b10100 .
b10100 h
b10100 ("
b10000 Q
b10000 $"
b100001001000000000000010000 i
b100001001000000000000010000 )"
b100001001000000000000010000 &"
b100001001000000000000010000 '"
b1001 ~"
b1001 C"
b100 >
b100 #"
b100 +"
b100 D"
b100 *"
b1000010010000000000000100 %"
b1001 c
b0 2"
b10001101000011010000000000000100 ^
b10001101000011010000000000000100 4"
b10101101000010010000000000000100 7"
b10101101000010010000000000000100 <
b10000 8"
b100000 S
b100000 f
b10000 ?
b10000 R
b10000 >"
b0 R"
b0 ;
b0 p
b0 Q"
b0 6
b0 k
b0 x"
b0 |"
b1000 P"
b1000 w"
1J"
1W"
0N"
0["
b1100 L"
b1001 g"
b1001 +
b1001 o"
b1001 v"
b1010 _"
b0 \
b0 k"
b1010 7
b1010 Z
b1010 y
b1010 ~
b1010 j"
0r"
0u
1s"
11
b1000 t"
b1000 2
b1000 _
b1000 y"
b101 q"
b101 t
b0 p"
b0 s
b10000 X
b10100 @
b10100 P
b10100 e
b10100 5"
b10000 =
b10000 N
b10000 ]
b100 $
1!
19
#225
0!
09
#250
1/"
b100 0"
b100 U"
b1010 ""
b1010 0
b1010 o
b1010 ^"
b11000 j
b11000 V
1I
1;"
0J
0<"
1M
1@"
1K
1="
b1010 v
b1010 /
b1010 `
b1010 x
b1010 }
b100 r
b100 ."
b1 {"
b1 !"
b0 z"
b0 z
b1001 n
b1001 \"
b11000 g
b11000 .
b11000 h
b11000 ("
b100001101000000000000010000 i
b100001101000000000000010000 )"
b100001101000000000000010000 &"
b100001101000000000000010000 '"
b100 2"
b1101 ~"
b1101 C"
b1000011010000000000000100 %"
b1101 c
b100011 D
b1101010010111100000100000 ^
b1101010010111100000100000 4"
b1001 t"
b1001 2
b1001 _
b1001 y"
b0 q"
b0 t
b1010 p"
b1010 s
1b"
1Y
0f"
0*
b0 g"
b0 +
b0 o"
b0 v"
b0 _"
b101 \
b101 k"
b0 7
b0 Z
b0 y
b0 ~
b0 j"
b100 R"
b100 ;
b100 p
b1001 Q"
b1001 6
b1001 k
b1001 x"
b1001 |"
b10000 L"
b10001101000011010000000000000100 7"
b10001101000011010000000000000100 <
b10100 8"
b100100 S
b100100 f
b10100 ?
b10100 R
b10100 >"
b10100 X
b11000 @
b11000 P
b11000 e
b11000 5"
b10100 =
b10100 N
b10100 ]
b101 $
1!
19
#275
0!
09
#300
0M
0@"
b0 ""
b0 0
b0 o
b0 ^"
b11100 j
b11100 V
b0 E
b0 9"
0I
0;"
0K
0="
0F
0:"
0L
0?"
b1101 n
b1101 \"
1!#
1C
0##
0W
1"#
16"
b0 {"
b0 !"
b0 v
b0 /
b0 `
b0 x
b0 }
b11100 g
b11100 .
b11100 h
b11100 ("
b11110000010000000 Q
b11110000010000000 $"
b110101001011110000010000000 i
b110101001011110000010000000 )"
b110101001011110000010000000 &"
b110101001011110000010000000 '"
0:
b1101 }"
b1001 ~"
b1111 A"
b1001 C"
b1101 B"
b111100000100000 >
b111100000100000 #"
b111100000100000 +"
b111100000100000 D"
b111100000100000 *"
b1101010010111100000100000 %"
b1001 c
b1010 5
b1010 U
b1010 d
b1010 F"
b1101 a
b0 D
b100000000010100000000000001101 ^
b100000000010100000000000001101 4"
b1101010010111100000100000 7"
b1101010010111100000100000 <
b11000 8"
b11110000010011000 S
b11110000010011000 f
b11000 ?
b11000 R
b11000 >"
b1101 Q"
b1101 6
b1101 k
b1101 x"
b1101 |"
1I"
13
0J"
0W"
1K"
1X"
1N"
1["
b10100 L"
b1001 g"
b1001 +
b1001 o"
b1001 v"
b1010 i"
b1010 [
b100 _"
b0 \
b0 k"
b100 7
b100 Z
b100 y
b100 ~
b100 j"
0s"
01
b0 t"
b0 2
b0 _
b0 y"
b101 q"
b101 t
b0 p"
b0 s
b11000 X
b11100 @
b11100 P
b11100 e
b11100 5"
b11000 =
b11000 N
b11000 ]
b110 $
1!
19
#325
0!
09
#350
b100 {
b100 -"
b11 E
b11 9"
1M
1@"
1L
1?"
1/"
b1110 0"
b1110 U"
b100 v
b100 /
b100 `
b100 x
b100 }
b10 z"
b10 z
b1001 n
b1001 \"
0!#
0C
1##
1W
0"#
06"
b1010 r
b1010 ."
b1010 ""
b1010 0
b1010 o
b1010 ^"
b100000 2"
b1001 t"
b1001 2
b1001 _
b1001 y"
b0 q"
b0 t
b100 p"
b100 s
1a"
0b"
0Y
1c"
1l"
1f"
1*
b1101 g"
b1101 +
b1101 o"
b1101 v"
b0 i"
b0 [
b111100000100000 R"
b111100000100000 ;
b111100000100000 p
b1001 Q"
b1001 6
b1001 k
b1001 x"
b1001 |"
b1101 P"
b1101 w"
b1111 O"
b1111 l
0I"
03
0K"
0X"
0N"
0["
0H"
0q
b11000 L"
b1010 T"
b1010 |
b1010 \
b1010 k"
b111 $
b1 %
b1 (
1!
19
#375
0!
09
#400
0/"
b10100 0"
b10100 U"
b1010 {
b1010 -"
b100000 j
b100000 V
b0 E
b0 9"
1F
1:"
0L
0?"
b1111 n
b1111 \"
b1 z"
b1 z
b1010 v
b1010 /
b1010 `
b1010 x
b1010 }
b100000 g
b100000 .
b100000 h
b100000 ("
b110100 Q
b110100 $"
b1010000000000000110100 i
b1010000000000000110100 )"
b1010000000000000110100 &"
b1010000000000000110100 '"
1:
b0 }"
b1010 ~"
b0 A"
b1010 C"
b0 B"
b1101 >
b1101 #"
b1101 +"
b1101 D"
b1101 *"
b10100000000000001101 %"
b1010 c
b0 5
b0 U
b0 d
b0 F"
b0 a
b1000 D
b1001010010101100000011000 ^
b1001010010101100000011000 4"
b100000000010100000000000001101 7"
b100000000010100000000000001101 <
b11100 8"
b1010000 S
b1010000 f
b11100 ?
b11100 R
b11100 >"
1N"
1["
b11 G"
b11 1"
1M"
1m
0a"
0c"
0l"
0f"
0*
b1001 g"
b1001 +
b1001 o"
b1001 v"
b1010 i"
b1010 [
b1110 _"
b0 \
b0 k"
b1110 7
b1110 Z
b1110 y
b1110 ~
b1110 j"
1r"
1u
1s"
11
b1101 t"
b1101 2
b1101 _
b1101 y"
b1010 q"
b1010 t
b11100 X
b100000 @
b100000 P
b100000 e
b100000 5"
b11100 =
b11100 N
b11100 ]
b1000 $
1!
19
#425
0!
09
#450
b0 {
b0 -"
b1101 0"
b1101 U"
b100100 j
b100100 V
b11 E
b11 9"
0F
0:"
1L
1?"
b1110 v
b1110 /
b1110 `
b1110 x
b1110 }
b0 z"
b0 z
b1101 r
b1101 ."
b1010 n
b1010 \"
b0 ""
b0 0
b0 o
b0 ^"
b100100 g
b100100 .
b100100 h
b100100 ("
b10110000001100000 Q
b10110000001100000 $"
b100101001010110000001100000 i
b100101001010110000001100000 )"
b100101001010110000001100000 &"
b100101001010110000001100000 '"
b1101 2"
b1001 }"
b1001 ~"
b1011 A"
b1001 C"
b1001 B"
b101100000011000 >
b101100000011000 #"
b101100000011000 +"
b101100000011000 D"
b101100000011000 *"
b1001010010101100000011000 %"
b1001 c
b1010 5
b1010 U
b1010 d
b1010 F"
b1001 a
b1010 4
b1010 T
b1010 b
b1010 E"
b0 D
b1000000000000000000000001011 ^
b1000000000000000000000001011 4"
0r"
0u
0s"
01
b1001 t"
b1001 2
b1001 _
b1001 y"
b0 q"
b0 t
b1110 p"
b1110 s
1f"
1*
b1111 g"
b1111 +
b1111 o"
b1111 v"
b10100 _"
b10100 7
b10100 Z
b10100 y
b10100 ~
b10100 j"
b1101 R"
b1101 ;
b1101 p
b1010 Q"
b1010 6
b1010 k
b1010 x"
b1010 |"
b0 P"
b0 w"
b0 O"
b0 l
1H"
1q
b0 G"
b0 1"
0M"
0m
b11100 L"
b0 T"
b0 |
b1001010010101100000011000 7"
b1001010010101100000011000 <
b100000 8"
b10110000010000000 S
b10110000010000000 f
b100000 ?
b100000 R
b100000 >"
b100000 X
b100100 @
b100100 P
b100100 e
b100100 5"
b100000 =
b100000 N
b100000 ]
b1001 $
1!
19
#475
0!
09
#500
1/"
b1100100 0"
b1100100 U"
b101100 j
b101100 V
1,
1H
1-
0M
0@"
b11 3"
b11 ,"
b1010 r
b1010 ."
b1011 n
b1011 \"
b1010 ""
b1010 0
b1010 o
b1010 ^"
b1010 {
b1010 -"
b10100 v
b10100 /
b10100 `
b10100 x
b10100 }
b101000 g
b101000 .
b101000 h
b101000 ("
b101100 Q
b101100 $"
b101100 i
b101100 )"
b101100 &"
b101100 '"
b0 }"
b0 ~"
b0 A"
b0 C"
b0 B"
b1011 >
b1011 #"
b1011 +"
b1011 D"
b1011 *"
b1011 %"
b0 c
b0 5
b0 U
b0 d
b0 F"
b0 a
b0 4
b0 T
b0 b
b0 E"
b10 D
b11000 2"
b100001001010010000000000000001 ^
b100001001010010000000000000001 4"
b1000000000000000000000001011 7"
b1000000000000000000000001011 <
b100100 8"
b1010000 S
b1010000 f
b100100 ?
b100100 R
b100100 >"
b101100000011000 R"
b101100000011000 ;
b101100000011000 p
b1001 Q"
b1001 6
b1001 k
b1001 x"
b1001 |"
b1001 P"
b1001 w"
b1011 O"
b1011 l
0H"
0q
b11 G"
b11 1"
1M"
1m
b100000 L"
b1010 T"
b1010 |
b1010 S"
b1010 w
b1010 g"
b1010 +
b1010 o"
b1010 v"
b0 i"
b0 [
b1101 _"
b1101 7
b1101 Z
b1101 y
b1101 ~
b1101 j"
1s"
11
b1111 t"
b1111 2
b1111 _
b1111 y"
b10100 p"
b10100 s
b100100 X
b101000 @
b101000 P
b101000 e
b101000 5"
b100100 =
b100100 N
b100100 ]
b1010 $
1!
19
#525
0!
09
#550
b0 r
b0 ."
1/"
b0 0"
b0 U"
0,
b110000 j
b110000 V
0H
0-
1M
1@"
b1101 v
b1101 /
b1101 `
b1101 x
b1101 }
b0 n
b0 \"
b0 ""
b0 0
b0 o
b0 ^"
b0 {
b0 -"
b110000 g
b110000 .
b110000 h
b110000 ("
b0 Q
b0 $"
b0 i
b0 )"
b0 &"
b0 '"
b1011 2"
b0 >
b0 #"
b0 +"
b0 D"
b0 *"
b0 %"
b0 D
b1010010010101000000100010 ^
b1010010010101000000100010 4"
b1010 t"
b1010 2
b1010 _
b1010 y"
b1101 p"
b1101 s
b1011 g"
b1011 +
b1011 o"
b1011 v"
b1010 i"
b1010 [
b1100100 _"
b0xxxxxxxx \
b0xxxxxxxx k"
b1100100 7
b1100100 Z
b1100100 y
b1100100 ~
b1100100 j"
b1011 R"
b1011 ;
b1011 p
b0 Q"
b0 6
b0 k
b0 x"
b0 |"
b0 P"
b0 w"
b0 O"
b0 l
0N"
0["
b100100 L"
b0 T"
b0 |
b0 S"
b0 w
b0 7"
b0 <
b101000 8"
b101000 S
b101000 f
b101000 ?
b101000 R
b101000 >"
b101100 X
b110000 @
b110000 P
b110000 e
b110000 5"
b101100 =
b101100 N
b101100 ]
b1011 $
1!
19
#575
0!
09
#600
b110100 j
b110100 V
b1100100 v
b1100100 /
b1100100 `
b1100100 x
b1100100 }
b110100 g
b110100 .
b110100 h
b110100 ("
b10100000010001000 Q
b10100000010001000 $"
b101001001010100000010001000 i
b101001001010100000010001000 )"
b101001001010100000010001000 &"
b101001001010100000010001000 '"
0:
b1010 }"
b1001 ~"
b1010 A"
b1001 C"
b1010 B"
b101000000100010 >
b101000000100010 #"
b101000000100010 +"
b101000000100010 D"
b101000000100010 *"
b1010010010101000000100010 %"
b1001 c
b1010 5
b1010 U
b1010 d
b1010 F"
b1010 a
b1101 4
b1101 T
b1101 b
b1101 E"
b0 2"
b1001010100101100000100100 ^
b1001010100101100000100100 4"
b1010010010101000000100010 7"
b1010010010101000000100010 <
b110000 8"
b10100000010111000 S
b10100000010111000 f
b110000 ?
b110000 R
b110000 >"
b0 R"
b0 ;
b0 p
1N"
1["
b101000 L"
0f"
0*
b0 g"
b0 +
b0 o"
b0 v"
b0 i"
b0 [
b0 _"
b0 \
b0 k"
b0 7
b0 Z
b0 y
b0 ~
b0 j"
b1011 t"
b1011 2
b1011 _
b1011 y"
b0xxxxxxxx q"
b0xxxxxxxx t
b1100100 p"
b1100100 s
b110000 X
b110100 @
b110100 P
b110100 e
b110100 5"
b110000 =
b110000 N
b110000 ]
b1100 $
1!
19
#625
0!
09
#650
0/"
b1010 r
b1010 ."
b11 0"
b11 U"
b111000 j
b111000 V
b110 3"
b110 ,"
b0 v
b0 /
b0 `
b0 x
b0 }
b1010 n
b1010 \"
b1010 ""
b1010 0
b1010 o
b1010 ^"
b1101 {
b1101 -"
b111000 g
b111000 .
b111000 h
b111000 ("
b10110000010010000 Q
b10110000010010000 $"
b100101010010110000010010000 i
b100101010010110000010010000 )"
b100101010010110000010010000 &"
b100101010010110000010010000 '"
b100010 2"
b1001 }"
b1010 ~"
b1011 A"
b1010 C"
b1001 B"
b101100000100100 >
b101100000100100 #"
b101100000100100 +"
b101100000100100 D"
b101100000100100 *"
b1001010100101100000100100 %"
b1010 c
b1101 5
b1101 U
b1101 d
b1101 F"
b1001 a
b1010 4
b1010 T
b1010 b
b1010 E"
b1010010110110000000100101 ^
b1010010110110000000100101 4"
0s"
01
b0 t"
b0 2
b0 _
b0 y"
b0 q"
b0 t
b0 p"
b0 s
1f"
1*
b101000000100010 R"
b101000000100010 ;
b101000000100010 p
b1001 Q"
b1001 6
b1001 k
b1001 x"
b1001 |"
b1010 P"
b1010 w"
b1010 O"
b1010 l
b110000 L"
b1010 T"
b1010 |
b1101 S"
b1101 w
b1001010100101100000100100 7"
b1001010100101100000100100 <
b110100 8"
b10110000011000100 S
b10110000011000100 f
b110100 ?
b110100 R
b110100 >"
b110100 X
b111000 @
b111000 P
b111000 e
b111000 5"
b110100 =
b110100 N
b110100 ]
b1101 $
1!
19
#675
0!
09
